<?xml version="1.0" encoding="UTF-8"?>
<svg width="30px" height="30px" viewBox="0 0 30 30" version="1.1" xmlns="http://www.w3.org/2000/svg" xmlns:xlink="http://www.w3.org/1999/xlink">
    <!-- Generator: Sketch 53.2 (72643) - https://sketchapp.com -->
    <title>chevron-left</title>
    <desc>Created with Sketch.</desc>
    <g id="Page-1" stroke="none" stroke-width="1" fill="none" fill-rule="evenodd">
        <g id="HUMANAS-HOME" transform="translate(-72.000000, -721.000000)" stroke="#FFFFFF" stroke-width="2">
            <g id="HERO">
                <g id="controll" transform="translate(72.000000, 717.000000)">
                    <g id="Group-2" transform="translate(0.000000, 4.000000)">
                        <g id="chevron-left" transform="translate(15.000000, 15.000000) rotate(-180.000000) translate(-15.000000, -15.000000) ">
                            <circle id="Oval" cx="15" cy="15" r="14"></circle>
                            <polyline id="Shape" stroke-linecap="round" stroke-linejoin="round" points="13 20 18 15 13 10"></polyline>
                        </g>
                    </g>
                </g>
            </g>
        </g>
    </g>
</svg>